...1.222.1...
.X.X0X.X0X.X.
.1........21.
.X0X.X.X.X0X.
....1........
1X0X.X.X.X.X.
.............
.X0X.X.X.X.X.
.1...........
.X.X.X.X.X.X.
...1.2.2.....
0 0 1 0 1 3
0 1 12 4 1 6
1 1 8 2 3 6
1 1 10 4 7 6
2 0 9 10 1 1
2 0 12 5 1 1
2 0 4 6 1 1
2 0 2 8 2 2
2 0 6 10 2 2
2 0 5 4 2 2
2 0 7 4 2 2
2 0 6 3 1 1
2 0 5 6 2 2